# Blender MTL File: 'model.blend'
# Material Count: 1

newmtl Material
Ns 81.000006
Ka 1.000000 1.000000 1.000000
Kd 1.000000 0.710000 0.290000
Ks 0.500000 0.500000 0.500000
Ke 0.000000 0.000000 0.000000
Ni 1.450000
d 1.000000
illum 3
map_Ns roughness.png